…
To make the table a bit easier to work with later, insert a row at the very top, copying the data from row 2. The top row should now say FOODS | Calories |  | Sugars | Fiber.

Now, we must load our CSV into R.

library(dplyr)
library(tidyverse)
library(ggplot2)

food_tab <- read_csv("MyFitnessPalData.csv")
food_tab

## # A tibble: 881 x 9
##    FOODS           Calories Carbs Fat   Protein Cholest Sodium Sugars Fiber
##    <chr>           <chr>    <chr> <chr> <chr>   <chr>   <chr>  <chr>  <chr>
##  1 6-Mar-19        <NA>     <NA>  <NA>  <NA>    <NA>    <NA>   <NA>   <NA> 
##  2 FOODS           Calories Carbs Fat   Protein Cholest Sodium Sugars Fiber
##  3 Breakfast       <NA>     <NA>  <NA>  <NA>    <NA>    <NA>   <NA>   <NA> 
##  4 Fried Rice, 1 ~ 459      88g   10g   8g      0mg     667mg  10g    2g   
##  5 Wholesome Swee~ 23       6g    0g    #NAME?  0mg     #NAME? 6g     #NAM~
##  6 Coffee - Black~ 5        1g    0g    0g      0mg     0mg    0g     0g   
##  7 Egg - Egg, 1 l~ 72       0g    5g    6g      186mg   71mg   0g     0g   
##  8 Lunch           <NA>     <NA>  <NA>  <NA>    <NA>    <NA>   <NA>   <NA> 
##  9 Milk 2% - Milk~ 65       6g    3g    4g      10mg    65mg   6g     0g   
## 10 Spinach - Raw,~ 3        1g    0g    0g      0mg     12mg   0g     0g   
## # ... with 871 more rows
…
You can read more about tidy data here.

Right now, our data is not tidy. we have dates and meal types being treated as entities when they should be attributes, we have quanities of foods mixed in with foods names, our column headers are incorrect, and we have units included in measurements, among other issues, which would all make calculations more difficult. To tidy our data, we must fix these things before any analysis can occur.

First, we will rename our FOODS column to match the style of the rest of the columns. We will also remove the entities that are not useful to us, which are those that simply list the nutrient types and those giving daily totals (we can calculate daily totals in our analysis later).

# Rename FOODS to Foods
tidy_food <- food_tab %>%
  rename("Foods"="FOODS")

# Remove Excess Entities
tidy_food <- tidy_food[!(tidy_food$Foods=="FOODS" | tidy_food$Foods=="TOTAL:"),]
tidy_food

## # A tibble: 777 x 9
##    Foods           Calories Carbs Fat   Protein Cholest Sodium Sugars Fiber
##    <chr>           <chr>    <chr> <chr> <chr>   <chr>   <chr>  <chr>  <chr>
##  1 6-Mar-19        <NA>     <NA>  <NA>  <NA>    <NA>    <NA>   <NA>   <NA> 
##  2 Breakfast       <NA>     <NA>  <NA>  <NA>    <NA>    <NA>   <NA>   <NA> 
##  3 Fried Rice, 1 ~ 459      88g   10g   8g      0mg     667mg  10g    2g   
##  4 Wholesome Swee~ 23       6g    0g    #NAME?  0mg     #NAME? 6g     #NAM~
##  5 Coffee - Black~ 5        1g    0g    0g      0mg     0mg    0g     0g   
##  6 Egg - Egg, 1 l~ 72       0g    5g    6g      186mg   71mg   0g     0g   
##  7 Lunch           <NA>     <NA>  <NA>  <NA>    <NA>    <NA>   <NA>   <NA> 
##  8 Milk 2% - Milk~ 65       6g    3g    4g      10mg    65mg   6g     0g   
##  9 Spinach - Raw,~ 3        1g    0g    0g      0mg     12mg   0g     0g   
## 10 Carrots, raw, ~ 13       3g    0g    0g      0mg     22mg   2g     1g   
## # ... with 767 more rows
…
# 
curr_date <- "__-___-__"
for (row in 1:nrow(tidy_food)) {
  potential_date <- tidy_food[row, "Foods"]
  if (grepl("\\d{1,}-\\D{3}-\\d{2}", potential_date)) {
    curr_date <- potential_date
  } else {
    tidy_food[row, "Date"] = curr_date
  }
}
tidy_food <- tidy_food[!(grepl("\\d{1,}-\\D{3}-\\d{2}", tidy_food$Foods)),]
tidy_food$Date <- as.Date(tidy_food$Date, "%d-%b-%y")
tidy_food

## # A tibble: 725 x 10
##    Foods Calories Carbs Fat   Protein Cholest Sodium Sugars Fiber
##    <chr> <chr>    <chr> <chr> <chr>   <chr>   <chr>  <chr>  <chr>
##  1 Brea~ <NA>     <NA>  <NA>  <NA>    <NA>    <NA>   <NA>   <NA> 
##  2 Frie~ 459      88g   10g   8g      0mg     667mg  10g    2g   
##  3 Whol~ 23       6g    0g    #NAME?  0mg     #NAME? 6g     #NAM~
##  4 Coff~ 5        1g    0g    0g      0mg     0mg    0g     0g   
##  5 Egg ~ 72       0g    5g    6g      186mg   71mg   0g     0g   
##  6 Lunch <NA>     <NA>  <NA>  <NA>    <NA>    <NA>   <NA>   <NA> 
##  7 Milk~ 65       6g    3g    4g      10mg    65mg   6g     0g   
##  8 Spin~ 3        1g    0g    0g      0mg     12mg   0g     0g   
##  9 Carr~ 13       3g    0g    0g      0mg     22mg   2g     1g   
## 10 Aldi~ 53       12g   #NAM~ 1g      #NAME?  #NAME? 8g     4g   
## # ... with 715 more rows, and 1 more variable: Date <date>
…
meals = c("Breakfast", "Lunch", "Dinner", "Snacks")
curr_meal <- "___"
for (row in 1:nrow(tidy_food)) {
  potential_meal <- tidy_food[row, "Foods"]
  if (potential_meal %in% meals) {
    curr_meal <- potential_meal
  } else {
    tidy_food[row, "Meal"] = curr_meal
  }
}
tidy_food <- tidy_food[!(tidy_food$Foods %in% meals),]
tidy_food

## # A tibble: 541 x 11
##    Foods Calories Carbs Fat   Protein Cholest Sodium Sugars Fiber
##    <chr> <chr>    <chr> <chr> <chr>   <chr>   <chr>  <chr>  <chr>
##  1 Frie~ 459      88g   10g   8g      0mg     667mg  10g    2g   
##  2 Whol~ 23       6g    0g    #NAME?  0mg     #NAME? 6g     #NAM~
##  3 Coff~ 5        1g    0g    0g      0mg     0mg    0g     0g   
##  4 Egg ~ 72       0g    5g    6g      186mg   71mg   0g     0g   
##  5 Milk~ 65       6g    3g    4g      10mg    65mg   6g     0g   
##  6 Spin~ 3        1g    0g    0g      0mg     12mg   0g     0g   
##  7 Carr~ 13       3g    0g    0g      0mg     22mg   2g     1g   
##  8 Aldi~ 53       12g   #NAM~ 1g      #NAME?  #NAME? 8g     4g   
##  9 Body~ 170      7g    3g    30g     85mg    70mg   2g     0g   
## 10 Natu~ 62       15g   0g    1g      0mg     0mg    12g    3g   
## # ... with 531 more rows, and 2 more variables: Date <date>, Meal <chr>

Finally, we split our Foods column into two parts: Food and Quantity.

tidy_food <- tidy_food %>%
  separate("Foods", c("Food", "Quantity"), sep=", (?=\\d)")
tidy_food

## # A tibble: 541 x 12
##    Food  Quantity Calories Carbs Fat   Protein Cholest Sodium Sugars Fiber
##    <chr> <chr>    <chr>    <chr> <chr> <chr>   <chr>   <chr>  <chr>  <chr>
##  1 Frie~ 1 servi~ 459      88g   10g   8g      0mg     667mg  10g    2g   
##  2 Whol~ 1.5 tsp  23       6g    0g    #NAME?  0mg     #NAME? 6g     #NAM~
##  3 Coff~ 1 cup    5        1g    0g    0g      0mg     0mg    0g     0g   
##  4 Egg ~ 1 large  72       0g    5g    6g      186mg   71mg   0g     0g   
##  5 Milk~ 0.5 cup  65       6g    3g    4g      10mg    65mg   6g     0g   
##  6 Spin~ 0.5 cup  3        1g    0g    0g      0mg     12mg   0g     0g   
##  7 Carr~ 0.25 cu~ 13       3g    0g    0g      0mg     22mg   2g     1g   
##  8 Aldi~ 105 gra~ 53       12g   #NAM~ 1g      #NAME?  #NAME? 8g     4g   
##  9 Body~ 1 scoop  170      7g    3g    30g     85mg    70mg   2g     0g   
## 10 Natu~ 1 orange 62       15g   0g    1g      0mg     0mg    12g    3g   
## # ... with 531 more rows, and 2 more variables: Date <date>, Meal <chr>
…
  mutate(Cholest = (gsub(",", "", Cholest))) %>%
  mutate(Sodium = (gsub(",", "", Sodium))) %>%
  mutate(Sugars = (gsub(",", "", Sugars))) %>%
  mutate(Fiber = (gsub(",", "", Fiber))) %>%
  mutate(Calories = as.integer(Calories)) %>%
  mutate(Carbs = as.integer(gsub("g", "", Carbs))) %>%
  mutate(Fat = as.integer(gsub("g", "", Fat))) %>%
  mutate(Protein = as.integer(gsub("g", "", Protein))) %>%
  mutate(Cholest = as.integer(gsub("mg", "", Cholest))) %>%
  mutate(Sodium = as.integer(gsub("mg", "", Sodium))) %>%
  mutate(Sugars = as.integer(gsub("g", "", Sugars))) %>%
  mutate(Fiber = as.integer(gsub("g", "", Fiber)))
tidy_food

## # A tibble: 541 x 12
##    Food  Quantity Calories Carbs   Fat Protein Cholest Sodium Sugars Fiber
##    <chr> <chr>       <int> <int> <int>   <int>   <int>  <int>  <int> <int>
##  1 Frie~ 1 servi~      459    88    10       8       0    667     10     2
##  2 Whol~ 1.5 tsp        23     6     0       0       0      0      6     0
##  3 Coff~ 1 cup           5     1     0       0       0      0      0     0
##  4 Egg ~ 1 large        72     0     5       6     186     71      0     0
##  5 Milk~ 0.5 cup        65     6     3       4      10     65      6     0
##  6 Spin~ 0.5 cup         3     1     0       0       0     12      0     0
##  7 Carr~ 0.25 cu~       13     3     0       0       0     22      2     1
##  8 Aldi~ 105 gra~       53    12     0       1       0      0      8     4
##  9 Body~ 1 scoop       170     7     3      30      85     70      2     0
## 10 Natu~ 1 orange       62    15     0       1       0      0     12     3
## # ... with 531 more rows, and 2 more variables: Date <date>, Meal <chr>
…
